
\tikzsetnextfilename{rpy}

\begin{tikzpicture}
    \node[anchor=south west,inner sep=0] at (0,0) 
        { \includegraphics[width=\textwidth]{Images/rpy.png} };

    \node at (8.5, 7) {\Large $Roll$};
    \node at (10, 5.25) {\Large $Pitch$};
    \node at (4.75, 1.925) {\Large $Yaw$};

    \node at (10, 6.75) {\LARGE $ x_B $};
    \node at (11.25, 4.25) {\LARGE $ y_B $};
    \node at (6, .75) {\LARGE $ z_B $};
\end{tikzpicture}
