
\tikzsetnextfilename{disturbed_ctrl_hinf}

\def\axisdefaultwidth{12cm}
\def\axisdefaultheight{5cm}

\begin{tikzpicture}
    \begin{axis}[
          name=domega_plt
        , xticklabels = {,,}
        , ylabel=\( \vartheta \) (\si{\degree})
        , no markers
        , grid = major
        , xmin=0, xmax=21
        ]
        \draw[ultra thin, color=gray!60] (axis cs:\pgfkeysvalueof{/pgfplots/xmin},0) -- (axis cs:\pgfkeysvalueof{/pgfplots/xmax},0);
        
        \addplot[dashdotted, green]
            table[x expr = \thisrow{time} - 5.6=time,y=set_point] 
                {Figures/Plots/disturbed_control_hinf.dat};
        \addplot[blue] 
            table[x expr = \thisrow{time} - 5.6, y = pitch_angle]  
                {Figures/Plots/disturbed_control_hinf.dat};
    \end{axis}

    \begin{axis}[
          at=(domega_plt.below south west), anchor=above north west
        , xlabel=Time (\si{\second})
        , ylabel=\( \delta M \) (\si{\newton\metre}) 
        , no markers
        , grid = major
        , xmin=0, xmax=21
        ]
        \draw[ultra thin, color=gray!60] (axis cs:\pgfkeysvalueof{/pgfplots/xmin},0) -- (axis cs:\pgfkeysvalueof{/pgfplots/xmax},0);
        \addplot[red] 
            table[x expr = \thisrow{time} - 5.6,y=control_var_m] 
                {Figures/Plots/disturbed_control_hinf.dat};
    \end{axis}
\end{tikzpicture}
